digraph interrupt {

    node [shape=triangle, label="Interrupt"] enter_irq;
    node [shape=oval, label="Décodage touche"] decode_key;
    node [shape=box, label="Touche Enter"] enter_pressed;
    node [shape=box, label="Touche numérique"] num_pressed;
    node [shape=box, label="Touche d'opération"] operation_pressed;

    node [shape=box, label="Ajouter la touche au buffer"] add_key_to_buffer;
    node [shape=box, label="Ajoute le buffer sur la pile"] add_buffer_to_stack;

    node [shape=box, label="Dépile les arguments"] unstack_args;
    node [shape=box, label="Exécute l'opération"] execute_op;
    node [shape=box, label="Empile le résultat"] stack_result;

    node [shape=triangle, label="reti"] reti;

    enter_irq->decode_key;
    decode_key->num_pressed;
    decode_key->enter_pressed;
    decode_key->operation_pressed;

    num_pressed->add_key_to_buffer;
    add_key_to_buffer->reti;

    enter_pressed->add_buffer_to_stack;
    add_buffer_to_stack->reti;

    operation_pressed->unstack_args;
    unstack_args->execute_op;
    execute_op->stack_result;
    stack_result->reti;
    
}
